Performing Analysis on Tidy Text — USC Libraries - DRS Resources for Data Literacy
…
Sentiment Analysis#

In the previous chapter, we explored the tidy text format and how it helps analyze word frequency and compare documents. Now, we shift focus to opinion mining or sentiment analysis, where we assess the emotional tone of a text. Just as human readers infer emotions like positivity, negativity, surprise, or disgust from words, we can use text mining tools to programmatically analyze a text’s emotional content. A common approach to sentiment analysis is to break the text into individual words, assign sentiment scores to those words, and sum them to understand the overall sentiment of the text. While this isn’t the only method for sentiment analysis, it is widely used and fits naturally within the tidy data framework and toolset.

The sentiments Dataset#

As discussed earlier, there are several methods and dictionaries available for evaluating opinion or emotion in text. The tidytext package provides access to three commonly used general-purpose sentiment lexicons: AFINN, developed by Finn Årup Nielsen; bing, from Bing Liu and collaborators; and nrc, created by Saif Mohammad and Peter Turney. All three lexicons are based on unigrams, meaning they assign sentiment scores to individual words. The nrc lexicon categorizes words as positive, negative, or into specific emotions like joy, anger, sadness, and trust, using a simple “yes”/”no” system. The bing lexicon also applies a binary positive or negative label to each word, while the AFINN lexicon assigns numerical sentiment scores ranging from -5 (most negative) to 5 (most positive). These lexicons are distributed under different licenses, so it’s important to review the terms and ensure they align with your project requirements before use.

The get_sentiments() function allows us to easily access specific sentiment lexicons along with their corresponding sentiment measures. By specifying the lexicon name (such as "afinn", "bing", or "nrc"), we can retrieve the appropriate set of words and their sentiment scores or categories, making it straightforward to incorporate sentiment analysis into a tidy text workflow.

library(tidytext)

print(get_sentiments("afinn"))

# A tibble: 2,477 x 2
   word       value
   <chr>      <dbl>
 1 abandon       -2
 2 abandoned     -2
 3 abandons      -2
 4 abducted      -2
 5 abduction     -2
 6 abductions    -2
 7 abhor         -3
 8 abhorred      -3
 9 abhorrent     -3
10 abhors        -3
# i 2,467 more rows

print(get_sentiments("bing"))

# A tibble: 6,786 x 2
   word        sentiment
   <chr>       <chr>    
 1 2-faces     negative 
 2 abnormal    negative 
 3 abolish     negative 
 4 abominable  negative 
 5 abominably  negative 
 6 abominate   negative 
 7 abomination negative 
 8 abort       negative 
 9 aborted     negative 
10 aborts      negative 
# i 6,776 more rows

print(get_sentiments("nrc"))

# A tibble: 13,872 x 2
   word        sentiment
   <chr>       <chr>    
 1 abacus      trust    
 2 abandon     fear     
 3 abandon     negative 
 4 abandon     sadness  
 5 abandoned   anger    
 6 abandoned   fear     
 7 abandoned   negative 
 8 abandoned   sadness  
 9 abandonment anger    
10 abandonment fear     
# i 13,862 more rows
…
With the text now in a tidy format—one word per row—we’re ready to run sentiment analysis. We’ll start by using the NRC lexicon and applying filter() to select only the words associated with joy. Then, we’ll filter the book text for words from Emma and use inner_join() to connect it to the sentiment lexicon. To see the most common joy-related words in Emma, we can apply count() from dplyr.

nrc_joy <- get_sentiments("nrc") %>% 
  filter(sentiment == "joy")

tidy_books %>%
  filter(book == "Emma") %>%
  inner_join(nrc_joy) %>%
  count(word, sort = TRUE) %>%
  print()

Joining with `by = join_by(word)`

# A tibble: 301 x 2
   word          n
   <chr>     <int>
 1 good        359
 2 friend      166
 3 hope        143
 4 happy       125
 5 love        117
 6 deal         92
 7 found        92
 8 present      89
 9 kind         82
10 happiness    76
# i 291 more rows
…
Comparing Sentiment Dictionaries#

With multiple sentiment lexicons available, it’s helpful to compare them to determine which best suits your analysis. To explore this, we can apply all three sentiment lexicons—AFINN, bing, and nrc—and examine how each captures sentiment changes across the narrative arc of Pride and Prejudice.

We start by using filter() to isolate only the words from Pride and Prejudice so we can focus the analysis on that specific text. From there, we can apply each lexicon to compare how sentiment patterns emerge using different approaches.

pride_prejudice <- tidy_books %>% 
  filter(book == "Pride & Prejudice")

print(pride_prejudice)

# A tibble: 122,204 x 4
   book              linenumber chapter word     
   <fct>                  <int>   <int> <chr>    
 1 Pride & Prejudice          1       0 pride    
 2 Pride & Prejudice          1       0 and      
 3 Pride & Prejudice          1       0 prejudice
 4 Pride & Prejudice          3       0 by       
 5 Pride & Prejudice          3       0 jane     
 6 Pride & Prejudice          3       0 austen   
 7 Pride & Prejudice          7       1 chapter  
 8 Pride & Prejudice          7       1 1        
 9 Pride & Prejudice         10       1 it       
10 Pride & Prejudice         10       1 is       
# i 122,194 more rows
…
print(bing_word_counts)

Joining with `by = join_by(word)`
Warning message in inner_join(., get_sentiments("bing")):
"Detected an unexpected many-to-many relationship between `x` and `y`.
i Row 435443 of `x` matches multiple rows in `y`.
i Row 5051 of `y` matches multiple rows in `x`.
i If a many-to-many relationship is expected, set `relationship =
  "many-to-many"` to silence this warning."

# A tibble: 2,585 x 3
   word     sentiment     n
   <chr>    <chr>     <int>
 1 miss     negative   1855
 2 well     positive   1523
 3 good     positive   1380
 4 great    positive    981
 5 like     positive    725
 6 better   positive    639
 7 enough   positive    613
 8 happy    positive    534
 9 love     positive    495
10 pleasure positive    462
# i 2,575 more rows
…
This reveals an anomaly in the sentiment analysis—the word “miss” is marked as negative, even though in Jane Austen’s works it is commonly used as a title for young, unmarried women. If needed for our analysis, we could easily add “miss” to a custom stop words list using bind_rows(). This could be done with an approach like the one shown here.

custom_stop_words <- bind_rows(tibble(word = c("miss"),  
                                      lexicon = c("custom")), 
                               stop_words)

print(custom_stop_words)

# A tibble: 1,150 x 2
   word        lexicon
   <chr>       <chr>  
 1 miss        custom 
 2 a           SMART  
 3 a's         SMART  
 4 able        SMART  
 5 about       SMART  
 6 above       SMART  
 7 according   SMART  
 8 accordingly SMART  
 9 across      SMART  
10 actually    SMART  
# i 1,140 more rows
…
book_words <- austen_books() %>%
  unnest_tokens(word, text) %>%
  count(book, word, sort = TRUE)

total_words <- book_words %>% 
  group_by(book) %>% 
  summarize(total = sum(n))

book_words <- left_join(book_words, total_words)

print(book_words)

Joining with `by = join_by(book)`

# A tibble: 40,378 x 4
   book              word      n  total
   <fct>             <chr> <int>  <int>
 1 Mansfield Park    the    6206 160465
 2 Mansfield Park    to     5475 160465
 3 Mansfield Park    and    5438 160465
 4 Emma              to     5239 160996
 5 Emma              the    5201 160996
 6 Emma              and    4896 160996
 7 Mansfield Park    of     4778 160465
 8 Pride & Prejudice the    4331 122204
 9 Emma              of     4291 160996
10 Pride & Prejudice to     4162 122204
# i 40,368 more rows
…
Zipf’s Law#

Distributions like those above are typical in natural language. In fact, these long-tailed patterns are so common in any text corpus—whether a book, website content, or spoken language—that the relationship between a word’s frequency and its rank has been extensively studied. This relationship is famously described by Zipf’s law, named after George Zipf, a 20th-century American linguist.

Zipf’s law states that a word’s frequency is roughly inversely proportional to its rank in the frequency list. Since we already have the data frame used to plot term frequencies, we can easily explore Zipf’s law for Jane Austen’s novels using just a few lines of dplyr code.

freq_by_rank <- book_words %>% 
  group_by(book) %>% 
  mutate(rank = row_number(), 
         term_frequency = n/total) %>%
  ungroup()

print(freq_by_rank)

# A tibble: 40,378 x 6
   book              word      n  total  rank term_frequency
   <fct>             <chr> <int>  <int> <int>          <dbl>
 1 Mansfield Park    the    6206 160465     1         0.0387
 2 Mansfield Park    to     5475 160465     2         0.0341
 3 Mansfield Park    and    5438 160465     3         0.0339
 4 Emma              to     5239 160996     1         0.0325
 5 Emma              the    5201 160996     2         0.0323
 6 Emma              and    4896 160996     3         0.0304
 7 Mansfield Park    of     4778 160465     4         0.0298
 8 Pride & Prejudice the    4331 122204     1         0.0354
 9 Emma              of     4291 160996     4         0.0267
10 Pride & Prejudice to     4162 122204     2         0.0341
# i 40,368 more rows
…
Our analysis of Jane Austen’s novels reveals a result close to the classic Zipf’s law. The deviations at high ranks—where fewer rare words appear than a single power law would predict—are typical in many language corpora. However, the deviations at low ranks are more unusual: Austen uses a smaller proportion of the very most common words compared to many other text collections. This type of analysis can be easily extended to compare different authors or other text collections, all while leveraging the simplicity and power of tidy data principles.

The bind_tf_idf() Function#

The idea behind tf-idf is to identify the most important words in each document by reducing the weight of very common words and increasing the weight of words that are relatively rare across the whole collection—in this case, Jane Austen’s novels as a group. Calculating tf-idf helps highlight words that are frequent within a specific text but not overused across the entire corpus.

To do this, we use the bind_tf_idf() function from the tidytext package, which takes a tidy text dataset as input. The dataset should have one row per token (word) per document. It needs a column with the terms (like word), a column identifying the documents (like book), and a column with the counts of each term in each document (n). Although we previously calculated totals for each book, bind_tf_idf() doesn’t require those—just the complete list of words and their counts for each document.

book_tf_idf <- book_words %>%
  bind_tf_idf(word, book, n)

print(book_tf_idf)

# A tibble: 40,378 x 7
   book              word      n  total     tf   idf tf_idf
   <fct>             <chr> <int>  <int>  <dbl> <dbl>  <dbl>
 1 Mansfield Park    the    6206 160465 0.0387     0      0
 2 Mansfield Park    to     5475 160465 0.0341     0      0
 3 Mansfield Park    and    5438 160465 0.0339     0      0
 4 Emma              to     5239 160996 0.0325     0      0
 5 Emma              the    5201 160996 0.0323     0      0
 6 Emma              and    4896 160996 0.0304     0      0
 7 Mansfield Park    of     4778 160465 0.0298     0      0
 8 Pride & Prejudice the    4331 122204 0.0354     0      0
 9 Emma              of     4291 160996 0.0267     0      0
10 Pride & Prejudice to     4162 122204 0.0341     0      0
# i 40,368 more rows

Notice that the inverse document frequency (idf), and therefore tf-idf, is zero for extremely common words that appear in all six of Jane Austen’s novels. This happens because the idf is calculated as the natural logarithm of the total number of documents divided by the number of documents containing the word—so when a word appears in every document, that ratio is 1, and log(1) equals zero. As a result, common words get very low or zero tf-idf scores, which reduces their importance in the analysis.

In contrast, words that appear in fewer documents have higher idf values, boosting their tf-idf scores and highlighting their uniqueness to particular texts. Let’s now explore which terms have the highest tf-idf values in Jane Austen’s works.

book_tf_idf %>%
  select(-total) %>%
  arrange(desc(tf_idf)) %>%
  print()

# A tibble: 40,378 x 6
   book                word          n      tf   idf  tf_idf
   <fct>               <chr>     <int>   <dbl> <dbl>   <dbl>
 1 Sense & Sensibility elinor      623 0.00519  1.79 0.00931
 2 Sense & Sensibility marianne    492 0.00410  1.79 0.00735
 3 Mansfield Park      crawford    493 0.00307  1.79 0.00550
 4 Pride & Prejudice   darcy       373 0.00305  1.79 0.00547
 5 Persuasion          elliot      254 0.00304  1.79 0.00544
 6 Emma                emma        786 0.00488  1.10 0.00536
 7 Northanger Abbey    tilney      196 0.00252  1.79 0.00452
 8 Emma                weston      389 0.00242  1.79 0.00433
 9 Pride & Prejudice   bennet      294 0.00241  1.79 0.00431
10 Persuasion          wentworth   191 0.00228  1.79 0.00409
# i 40,368 more rows
…
library(gutenbergr)

physics <- gutenberg_download(c(37729, 14725, 13476, 30155), 
                              meta_fields = "author")

Now that we have the texts, let’s use unnest_tokens() and count() to find out how many times each word was used in each text.

physics_words <- physics %>%
  unnest_tokens(word, text) %>%
  count(author, word, sort = TRUE)

print(physics_words)

# A tibble: 12,664 x 3
   author              word      n
   <chr>               <chr> <int>
 1 Galilei, Galileo    the    3760
 2 Tesla, Nikola       the    3604
 3 Huygens, Christiaan the    3553
 4 Einstein, Albert    the    2993
 5 Galilei, Galileo    of     2049
 6 Einstein, Albert    of     2029
 7 Tesla, Nikola       of     1737
 8 Huygens, Christiaan of     1708
 9 Huygens, Christiaan to     1207
10 Tesla, Nikola       a      1177
# i 12,654 more rows
…
Some text cleaning may be necessary. Also, notice that “co” and “ordinate” appear separately among the high tf-idf words for Einstein’s text; this happens because `unnest_tokens() by default splits on punctuation such as hyphens. The tf-idf values for “co” and “ordinate” are nearly identical!

Additionally, abbreviations like “AB” and “RC” refer to names of rays, circles, angles, and similar concepts in Huygens’ work.

physics %>% 
  filter(str_detect(text, "RC")) %>% 
  select(text) %>%
  print()

# A tibble: 44 x 1
   text                                                                  
   <chr>                                                                 
 1 line RC, parallel and equal to AB, to be a portion of a wave of light,
 2 represents the partial wave coming from the point A, after the wave RC
 3 be the propagation of the wave RC which fell on AB, and would be the  
 4 transparent body; seeing that the wave RC, having come to the aperture
 5 incident rays. Let there be such a ray RC falling upon the surface    
 6 CK. Make CO perpendicular to RC, and across the angle KCO adjust OK,  
 7 the required refraction of the ray RC. The demonstration of this is,  
 8 explaining ordinary refraction. For the refraction of the ray RC is   
 9 29. Now as we have found CI the refraction of the ray RC, similarly   
10 the ray _r_C is inclined equally with RC, the line C_d_ will          
# i 34 more rows
…
So far, we’ve used unnest_tokens() to break text into individual words or sentences, which works well for sentiment and frequency analysis. However, we can also use this function to create sequences of consecutive words, known as n-grams. By analyzing how often one word follows another, we can better understand the relationships between words.

To do this, we simply add token = "ngrams" to unnest_tokens() and set n to the number of consecutive words we want to group. When n = 2, we generate pairs of consecutive words, commonly referred to as bigrams.

library(dplyr)
library(tidytext)
library(janeaustenr)

austen_bigrams <- austen_books() %>%
  unnest_tokens(bigram, text, token = "ngrams", n = 2) %>%
  filter(!is.na(bigram))

print(austen_bigrams)

# A tibble: 662,792 x 2
   book                bigram         
   <fct>               <chr>          
 1 Sense & Sensibility sense and      
 2 Sense & Sensibility and sensibility
 3 Sense & Sensibility by jane        
 4 Sense & Sensibility jane austen    
 5 Sense & Sensibility chapter 1      
 6 Sense & Sensibility the family     
 7 Sense & Sensibility family of      
 8 Sense & Sensibility of dashwood    
 9 Sense & Sensibility dashwood had   
10 Sense & Sensibility had long       
# i 662,782 more rows

This structure remains consistent with the tidy text format, where each row represents one token, but in this case, the tokens are bigrams rather than individual words. Additional information, like the book name, is still included.

It’s important to note that these bigrams overlap — for example, “sense and” is one token, and “and sensibility” is the next.

Counting and Filtering n-grams#

The same tidy tools we’ve been using for single words work just as well for n-gram analysis. We can use functions like count() from dplyr to easily find the most common bigrams in the text.

austen_bigrams %>%
  count(bigram, sort = TRUE) %>%
  print()

# A tibble: 193,212 x 2
   bigram       n
   <chr>    <int>
 1 of the    2853
 2 to be     2670
 3 in the    2221
 4 it was    1691
 5 i am      1485
 6 she had   1405
 7 of her    1363
 8 to the    1315
 9 she was   1309
10 had been  1206
# i 193,202 more rows
…
bigrams_separated <- austen_bigrams %>%
  separate(bigram, c("word1", "word2"), sep = " ")

bigrams_filtered <- bigrams_separated %>%
  filter(!word1 %in% stop_words$word) %>%
  filter(!word2 %in% stop_words$word)

# new bigram counts:
bigram_counts <- bigrams_filtered %>% 
  count(word1, word2, sort = TRUE)

print(bigram_counts)

# A tibble: 28,971 x 3
   word1   word2         n
   <chr>   <chr>     <int>
 1 sir     thomas      266
 2 miss    crawford    196
 3 captain wentworth   143
 4 miss    woodhouse   143
 5 frank   churchill   114
 6 lady    russell     110
 7 sir     walter      108
 8 lady    bertram     101
 9 miss    fairfax      98
10 colonel brandon      96
# i 28,961 more rows

We notice that many of the most frequent bigrams in Jane Austen’s novels are names, either full names or names paired with titles like “Mr.” or “Miss.”

In some cases, though, we might want to work with the bigrams as single, recombined units again. For that, we can use unite() from tidyr, which reverses the effect of separate() and merges multiple columns back into one. Using a combination of separate(), filtering out stop words, count(), and then unite(), we can easily identify the most frequent meaningful bigrams that exclude common stop words.

bigrams_united <- bigrams_filtered %>%
  unite(bigram, word1, word2, sep = " ")

print(bigrams_united)

# A tibble: 38,910 x 2
   book                bigram                  
   <fct>               <chr>                   
 1 Sense & Sensibility jane austen             
 2 Sense & Sensibility chapter 1               
 3 Sense & Sensibility norland park            
 4 Sense & Sensibility surrounding acquaintance
 5 Sense & Sensibility late owner              
 6 Sense & Sensibility advanced age            
 7 Sense & Sensibility constant companion      
 8 Sense & Sensibility happened ten            
 9 Sense & Sensibility henry dashwood          
10 Sense & Sensibility norland estate          
# i 38,900 more rows
…
