Text Mining with R — USC Libraries - DRS Resources for Data Literacy
…
library(janeaustenr)
library(dplyr)
library(stringr)

original_books <- austen_books() %>%
  group_by(book) %>%
  mutate(linenumber = row_number(),
         chapter = cumsum(str_detect(text, 
                                     regex("^chapter [\\divxlc]",
                                           ignore_case = TRUE)))) %>%
  ungroup()

print(original_books)

# A tibble: 73,422 x 4
   text                    book                linenumber chapter
   <chr>                   <fct>                    <int>   <int>
 1 "SENSE AND SENSIBILITY" Sense & Sensibility          1       0
 2 ""                      Sense & Sensibility          2       0
 3 "by Jane Austen"        Sense & Sensibility          3       0
 4 ""                      Sense & Sensibility          4       0
 5 "(1811)"                Sense & Sensibility          5       0
 6 ""                      Sense & Sensibility          6       0
 7 ""                      Sense & Sensibility          7       0
 8 ""                      Sense & Sensibility          8       0
 9 ""                      Sense & Sensibility          9       0
10 "CHAPTER 1"             Sense & Sensibility         10       1
# i 73,412 more rows

To create a tidy dataset for analysis, we need to restructure the text so that each token—typically a single word—occupies its own row. This transformation is accomplished using the unnest_tokens() function, which relies on the tokenizers package. It breaks the text into individual tokens and arranges them in the one-token-per-row format essential for tidy text analysis. By default, it tokenizes by words, but it also supports other units such as characters, n-grams, sentences, lines, paragraphs, or tokens defined by a custom regex pattern. This flexibility allows us to tailor tokenization to the specific needs of the analysis.

library(tidytext)
tidy_books <- original_books %>%
  unnest_tokens(word, text)

print(tidy_books)

# A tibble: 725,064 x 4
   book                linenumber chapter word       
   <fct>                    <int>   <int> <chr>      
 1 Sense & Sensibility          1       0 sense      
 2 Sense & Sensibility          1       0 and        
 3 Sense & Sensibility          1       0 sensibility
 4 Sense & Sensibility          3       0 by         
 5 Sense & Sensibility          3       0 jane       
 6 Sense & Sensibility          3       0 austen     
 7 Sense & Sensibility          5       0 1811       
 8 Sense & Sensibility         10       1 chapter    
 9 Sense & Sensibility         10       1 1          
10 Sense & Sensibility         13       1 the        
# i 725,054 more rows
…
data(stop_words)

tidy_books <- tidy_books %>%
  anti_join(stop_words)

Joining with `by = join_by(word)`

Using dplyr’s count() function, we can quickly tally how often each word appears across all the books combined. This lets us identify the most common words in the entire collection, which is a helpful step to understand word frequency patterns before or after removing stop words.

tidy_books %>%
  count(word, sort = TRUE) %>%
  print()

# A tibble: 13,910 x 2
   word       n
   <chr>  <int>
 1 miss    1855
 2 time    1337
 3 fanny    862
 4 dear     822
 5 lady     817
 6 sir      806
 7 day      797
 8 emma     787
 9 sister   727
10 house    699
# i 13,900 more rows
…
tidy_hgwells <- hgwells %>%
  unnest_tokens(word, text) %>%
  anti_join(stop_words)

Joining with `by = join_by(word)`

Here we can use count() to get the most common words in these novels of H.G. Wells.

tidy_hgwells %>%
  count(word, sort = TRUE) %>%
  print()

# A tibble: 11,810 x 2
   word       n
   <chr>  <int>
 1 time     461
 2 people   302
 3 door     260
 4 heard    249
 5 black    232
 6 stood    229
 7 white    224
 8 hand     218
 9 kemp     213
10 eyes     210
# i 11,800 more rows
…
bronte <- gutenberg_download(c(1260, 768, 969, 9182, 767))

tidy_bronte <- bronte %>%
  unnest_tokens(word, text) %>%
  anti_join(stop_words)

Joining with `by = join_by(word)`

Here we can use count() to get the most common words in these novels of the Brontë Sisters.

tidy_bronte %>%
  count(word, sort = TRUE) %>%
  print()

# A tibble: 23,204 x 2
   word             n
   <chr>        <int>
 1 "time"        1065
 2 "miss"         854
 3 "day"          825
 4 "don\u2019t"   780
 5 "hand"         767
 6 "eyes"         714
 7 "night"        648
 8 "heart"        638
 9 "looked"       601
10 "door"         591
# i 23,194 more rows
…
frequency <- bind_rows(mutate(tidy_bronte, author = "Brontë Sisters"),
                       mutate(tidy_hgwells, author = "H.G. Wells"), 
                       mutate(tidy_books, author = "Jane Austen")) %>% 
  mutate(word = str_extract(word, "[a-z']+")) %>%
  count(author, word) %>%
  group_by(author) %>%
  mutate(proportion = n / sum(n)) %>% 
  select(-n) %>% 
  pivot_wider(names_from = author, values_from = proportion) %>%
  pivot_longer(`Brontë Sisters`:`H.G. Wells`,
               names_to = "author", values_to = "proportion")

print(frequency)
#> # A tibble: 57,812 × 4
#>    word    `Jane Austen` author          proportion
#>    <chr>           <dbl> <chr>                <dbl>
#>  1 a          0.00000919 Brontë Sisters  0.00000797
#>  2 a          0.00000919 H.G. Wells     NA         
#>  3 a'most    NA          Brontë Sisters  0.0000159 
#>  4 a'most    NA          H.G. Wells     NA         
#>  5 aback     NA          Brontë Sisters  0.00000398
#>  6 aback     NA          H.G. Wells      0.0000150 
#>  7 abaht     NA          Brontë Sisters  0.00000398
#>  8 abaht     NA          H.G. Wells     NA         
#>  9 abandon   NA          Brontë Sisters  0.0000319 
#> 10 abandon   NA          H.G. Wells      0.0000150 
#> # ℹ 57,802 more rows

# A tibble: 56,530 × 4
   word      `Jane Austen` author          proportion
   <chr>             <dbl> <chr>                <dbl>
 1 a            0.00000919 Brontë Sisters  0.0000430 
 2 a            0.00000919 H.G. Wells     NA         
 3 aback       NA          Brontë Sisters  0.00000391
 4 aback       NA          H.G. Wells      0.0000147 
 5 abaht       NA          Brontë Sisters  0.00000391
 6 abaht       NA          H.G. Wells     NA         
 7 abandon     NA          Brontë Sisters  0.0000313 
 8 abandon     NA          H.G. Wells      0.0000147 
 9 abandoned    0.00000460 Brontë Sisters  0.0000899 
10 abandoned    0.00000460 H.G. Wells      0.000177  
# ℹ 56,520 more rows
…
