Tidy Text Case Studies — USC Libraries - DRS Resources for Data Literacy
…
We can now compute word frequencies for each individual. To do this, we first group the data by person and word, counting the number of times each word appears per person. Next, we perform a left\_join() to bring in the total word counts for each person — Julia’s total is larger since she has more tweets overall. Finally, we calculate the frequency of each word for each person by dividing the word count by the total words they used.

frequency <- tidy_tweets %>% 
  count(person, word, sort = TRUE) %>% 
  left_join(tidy_tweets %>% 
              count(person, name = "total")) %>%
  mutate(freq = n/total)

print(frequency)

Joining with `by = join_by(person)`

# A tibble: 20,722 x 5
   person word               n total    freq
   <chr>  <chr>          <int> <int>   <dbl>
 1 Julia  time             584 74541 0.00783
 2 Julia  @selkie1970      570 74541 0.00765
 3 Julia  @skedman         531 74541 0.00712
 4 Julia  day              467 74541 0.00627
 5 Julia  baby             408 74541 0.00547
 6 David  @hadleywickham   315 20150 0.0156 
 7 Julia  love             304 74541 0.00408
 8 Julia  @haleynburke     299 74541 0.00401
 9 Julia  house            289 74541 0.00388
10 Julia  morning          278 74541 0.00373
# i 20,712 more rows

This gives us a clean and tidy data frame, but to visualize those frequencies with one person’s frequency on the x-axis and the other’s on the y-axis, we need to reshape the data. We can use tidyr’s pivot\_wider() function to transform the data frame so that each person’s word frequencies become separate columns, ready for plotting.

library(tidyr)

frequency <- frequency %>% 
  select(person, word, freq) %>% 
  pivot_wider(names_from = person, values_from = freq) %>%
  arrange(Julia, David)

print(frequency)

# A tibble: 17,629 x 3
   word                 Julia     David
   <chr>                <dbl>     <dbl>
 1 's               0.0000134 0.0000496
 2 1x               0.0000134 0.0000496
 3 5k               0.0000134 0.0000496
 4 @accidental__art 0.0000134 0.0000496
 5 @alice_data      0.0000134 0.0000496
 6 @alistaire       0.0000134 0.0000496
 7 @corynissen      0.0000134 0.0000496
 8 @jennybryan's    0.0000134 0.0000496
 9 @jsvine          0.0000134 0.0000496
10 @lizasperling    0.0000134 0.0000496
# i 17,619 more rows
…
Here are some words that have been about equally likely to come from David or Julia’s account during 2016.

word_ratios %>% 
  arrange(abs(logratio)) %>%
  print()

# A tibble: 377 x 4
   word         David   Julia logratio
   <chr>        <dbl>   <dbl>    <dbl>
 1 email      0.00229 0.00228  0.00463
 2 file       0.00229 0.00228  0.00463
 3 map        0.00252 0.00254 -0.00543
 4 names      0.00413 0.00406  0.0170 
 5 account    0.00183 0.00177  0.0328 
 6 api        0.00183 0.00177  0.0328 
 7 function   0.00367 0.00355  0.0328 
 8 population 0.00183 0.00177  0.0328 
 9 sad        0.00183 0.00177  0.0328 
10 words      0.00367 0.00355  0.0328 
# i 367 more rows
…
words_by_time <- tidy_tweets %>%
  filter(!str_detect(word, "^@")) %>%
  mutate(time_floor = floor_date(timestamp, unit = "1 month")) %>%
  count(time_floor, person, word) %>%
  group_by(person, time_floor) %>%
  mutate(time_total = sum(n)) %>%
  group_by(person, word) %>%
  mutate(word_total = sum(n)) %>%
  ungroup() %>%
  rename(count = n) %>%
  filter(word_total > 30)

print(words_by_time)

# A tibble: 327 x 6
   time_floor          person word    count time_total word_total
   <dttm>              <chr>  <chr>   <int>      <int>      <int>
 1 2016-01-01 00:00:00 David  #rstats     2        306        208
 2 2016-01-01 00:00:00 David  broom       2        306         39
 3 2016-01-01 00:00:00 David  data        2        306        165
 4 2016-01-01 00:00:00 David  ggplot2     1        306         39
 5 2016-01-01 00:00:00 David  tidy        1        306         46
 6 2016-01-01 00:00:00 David  time        2        306         58
 7 2016-01-01 00:00:00 David  tweets      1        306         46
 8 2016-01-01 00:00:00 Julia  #rstats    10        401        116
 9 2016-01-01 00:00:00 Julia  blog        2        401         33
10 2016-01-01 00:00:00 Julia  data        5        401        111
# i 317 more rows

Each row in this data frame represents a single person’s use of a specific word within a particular time bin. The count column shows how many times that person used the word in that time period, time_total gives the total number of words the person tweeted during that time bin, and word_total indicates the total number of times that person used that word throughout the entire year. This dataset is ready to be used for modeling purposes.

Next, we can apply nest() from tidyr to create a data frame where each word corresponds to a list-column containing smaller data frames—essentially mini datasets—for each word. Let’s go ahead and do that, then examine the structure of the resulting nested data frame.

nested_data <- words_by_time %>%
  nest(data = c(-word, -person)) 

print(nested_data)

# A tibble: 32 x 3
   person word    data             
   <chr>  <chr>   <list>           
 1 David  #rstats <tibble [12 x 4]>
 2 David  broom   <tibble [10 x 4]>
 3 David  data    <tibble [12 x 4]>
 4 David  ggplot2 <tibble [10 x 4]>
 5 David  tidy    <tibble [11 x 4]>
 6 David  time    <tibble [12 x 4]>
 7 David  tweets  <tibble [8 x 4]> 
 8 Julia  #rstats <tibble [12 x 4]>
 9 Julia  blog    <tibble [10 x 4]>
10 Julia  data    <tibble [12 x 4]>
# i 22 more rows

This data frame contains one row for each unique person-word pair, and the data column is a list-column holding smaller data frames for each of those pairs. We’ll use map() from the purrr package (Henry and Wickham 2018) to run our modeling function on each of these nested data frames.

Since the data involves counts, we’ll fit a generalized linear model using glm() with family = "binomial". Essentially, this model answers a question like: “Was this particular word mentioned during this time bin (yes or no)? How does the likelihood of mentioning this word change over time?”

suppressPackageStartupMessages(library(purrr))

nested_models <- nested_data %>%
  mutate(models = map(data, ~ glm(cbind(count, time_total) ~ time_floor, ., 
                                  family = "binomial")))

print(nested_models)

# A tibble: 32 x 4
   person word    data              models
   <chr>  <chr>   <list>            <list>
 1 David  #rstats <tibble [12 x 4]> <glm> 
 2 David  broom   <tibble [10 x 4]> <glm> 
 3 David  data    <tibble [12 x 4]> <glm> 
 4 David  ggplot2 <tibble [10 x 4]> <glm> 
 5 David  tidy    <tibble [11 x 4]> <glm> 
 6 David  time    <tibble [12 x 4]> <glm> 
 7 David  tweets  <tibble [8 x 4]>  <glm> 
 8 Julia  #rstats <tibble [12 x 4]> <glm> 
 9 Julia  blog    <tibble [10 x 4]> <glm> 
10 Julia  data    <tibble [12 x 4]> <glm> 
# i 22 more rows
…
Now that we have this smaller, more recent dataset, we’ll again use unnest_tokens() to convert the tweets into a tidy format. We’ll filter out all retweets and replies to focus solely on the original tweets posted directly by David and Julia.

tidy_tweets <- tweets %>% 
  filter(!str_detect(text, "^(RT|@)")) %>%
  mutate(text = str_replace_all(text, replace_reg, "")) %>%
  unnest_tokens(word, text, token = "regex", pattern = unnest_reg) %>%
  filter(!word %in% stop_words$word,
         !word %in% str_remove_all(stop_words$word, "'"))

print(tidy_tweets)

# A tibble: 11,074 x 7
        id created_at          source            retweets favorites person word 
     <dbl> <dttm>              <chr>                <dbl>     <dbl> <chr>  <chr>
 1 8.04e17 2016-12-01 16:44:03 Twitter Web Clie~        0         0 Julia  score
 2 8.04e17 2016-12-01 16:44:03 Twitter Web Clie~        0         0 Julia  50   
 3 8.04e17 2016-12-01 16:42:03 Twitter Web Clie~        0         9 Julia  snow~
 4 8.04e17 2016-12-01 16:42:03 Twitter Web Clie~        0         9 Julia  drin~
 5 8.04e17 2016-12-01 16:42:03 Twitter Web Clie~        0         9 Julia  tea  
 6 8.04e17 2016-12-01 16:42:03 Twitter Web Clie~        0         9 Julia  #rst~
 7 8.04e17 2016-12-01 02:56:10 Twitter Web Clie~        0        11 Julia  julie
 8 8.04e17 2016-12-01 02:56:10 Twitter Web Clie~        0        11 Julia  help~
 9 8.04e17 2016-12-01 02:56:10 Twitter Web Clie~        0        11 Julia  pyth~
10 8.04e17 2016-12-01 02:56:10 Twitter Web Clie~        0        11 Julia  pack~
# i 11,064 more rows
…
word_by_rts %>% 
  filter(uses >= 5) %>%
  arrange(desc(retweets)) %>%
  print()

`summarise()` has grouped output by 'id', 'word'. You can override using the
`.groups` argument.
`summarise()` has grouped output by 'person'. You can override using the
`.groups` argument.
Joining with `by = join_by(person)`

# A tibble: 178 x 5
   person word          retweets  uses total_rts
   <chr>  <chr>            <dbl> <int>     <dbl>
 1 David  animation         85       5     13012
 2 David  download          52       5     13012
 3 David  start             51       7     13012
 4 Julia  tidytext          50       7      1749
 5 David  gganimate         45       8     13012
 6 David  introducing       45       6     13012
 7 David  understanding     37       6     13012
 8 David  0                 35       7     13012
 9 David  error             34.5     8     13012
10 David  bayesian          34       7     13012
# i 168 more rows
…
# Use unnest() and map() to apply read_folder to each subfolder
raw_text <- tibble(folder = dir(training_folder, full.names = TRUE)) %>%
  mutate(folder_out = map(folder, read_folder)) %>%
  unnest(cols = c(folder_out)) %>%
  transmute(newsgroup = basename(folder), id, text)

print(raw_text)

# A tibble: 511,617 x 3
   newsgroup   id    text                                                       
   <chr>       <chr> <chr>                                                      
 1 alt.atheism 49960 "From: mathew <mathew@mantis.co.uk>"                       
 2 alt.atheism 49960 "Subject: Alt.Atheism FAQ: Atheist Resources"              
 3 alt.atheism 49960 "Summary: Books, addresses, music -- anything related to a~
 4 alt.atheism 49960 "Keywords: FAQ, atheism, books, music, fiction, addresses,~
 5 alt.atheism 49960 "Expires: Thu, 29 Apr 1993 11:57:19 GMT"                   
 6 alt.atheism 49960 "Distribution: world"                                      
 7 alt.atheism 49960 "Organization: Mantis Consultants, Cambridge. UK."         
 8 alt.atheism 49960 "Supersedes: <19930301143317@mantis.co.uk>"                
 9 alt.atheism 49960 "Lines: 290"                                               
10 alt.atheism 49960 ""                                                         
# i 511,607 more rows
…
Each raw text dataset will need its own unique cleaning process, often involving some trial and error and investigation of atypical cases. It’s worth noting that this cleaning can be effectively done using tidy tools like dplyr and tidyr.

Words in Newsgroups#

With headers, signatures, and formatting removed, we can begin exploring frequently used words. For example, we might identify the most common words across the entire dataset or focus on specific newsgroups.

usenet_words %>%
  count(word, sort = TRUE) %>%
  print()

# A tibble: 65,918 x 2
   word            n
   <chr>       <int>
 1 people       3656
 2 time         2709
 3 god          1627
 4 system       1610
 5 space        1135
 6 windows      1126
 7 program      1103
 8 bit          1101
 9 information  1094
10 government   1084
# i 65,908 more rows

words_by_newsgroup <- usenet_words %>%
  count(newsgroup, word, sort = TRUE) %>%
  ungroup()

print(words_by_newsgroup)

# A tibble: 173,417 x 3
   newsgroup               word          n
   <chr>                   <chr>     <int>
 1 soc.religion.christian  god         917
 2 sci.space               space       902
 3 talk.politics.mideast   people      729
 4 sci.crypt               key         704
 5 comp.os.ms-windows.misc windows     638
 6 talk.politics.mideast   armenian    583
 7 sci.crypt               db          549
 8 talk.politics.mideast   turkish     515
 9 rec.autos               car         512
10 talk.politics.mideast   armenians   509
# i 173,407 more rows

Finding tf-idf Within Newsgroups#

Since newsgroups vary by topic and content, we’d expect word frequencies to differ across them. Let’s quantify this difference using the tf-idf metric.

tf_idf <- words_by_newsgroup %>%
  bind_tf_idf(word, newsgroup, n) %>%
  arrange(desc(tf_idf))

print(tf_idf)

# A tibble: 173,417 x 6
   newsgroup                word               n      tf   idf tf_idf
   <chr>                    <chr>          <int>   <dbl> <dbl>  <dbl>
 1 comp.sys.ibm.pc.hardware scsi             485 0.0173   1.20 0.0209
 2 talk.politics.mideast    armenian         583 0.00805  2.30 0.0185
 3 rec.motorcycles          bike             324 0.0137   1.20 0.0165
 4 talk.politics.mideast    armenians        509 0.00703  2.30 0.0162
 5 sci.crypt                encryption       410 0.00802  1.90 0.0152
 6 rec.sport.hockey         hockey           293 0.00815  1.61 0.0131
 7 rec.sport.hockey         nhl              157 0.00437  3.00 0.0131
 8 talk.politics.misc       stephanopoulos   158 0.00417  3.00 0.0125
 9 rec.motorcycles          bikes             97 0.00410  3.00 0.0123
10 comp.windows.x           oname            136 0.00347  3.00 0.0104
# i 173,407 more rows
…
We observe many distinctive words tied to specific newsgroups, like “wiring” and “circuit” in sci.electronics and “orbit” and “lunar” in the space newsgroup. You can use this same approach to explore other newsgroups on your own.

Which newsgroups show similar text content? We can investigate this by calculating the pairwise correlation of word frequencies between newsgroups using the pairwise_cor() function from the widyr package.

library(widyr)

newsgroup_cors <- words_by_newsgroup %>%
  pairwise_cor(newsgroup, word, n, sort = TRUE)

print(newsgroup_cors)

# A tibble: 380 x 3
   item1                    item2                    correlation
   <chr>                    <chr>                          <dbl>
 1 talk.religion.misc       soc.religion.christian         0.835
 2 soc.religion.christian   talk.religion.misc             0.835
 3 alt.atheism              talk.religion.misc             0.773
 4 talk.religion.misc       alt.atheism                    0.773
 5 alt.atheism              soc.religion.christian         0.744
 6 soc.religion.christian   alt.atheism                    0.744
 7 comp.sys.mac.hardware    comp.sys.ibm.pc.hardware       0.675
 8 comp.sys.ibm.pc.hardware comp.sys.mac.hardware          0.675
 9 rec.sport.baseball       rec.sport.hockey               0.574
10 rec.sport.hockey         rec.sport.baseball             0.574
# i 370 more rows
…
This analysis shows that the “misc.forsale” newsgroup was the most positive overall. This is understandable, as users probably used many positive adjectives when describing items they wanted to sell!

Sentiment Analysis by Word#

It’s helpful to explore further to see why certain newsgroups scored as more positive or negative. To do this, we can analyze the overall positive and negative contributions of individual words.

contributions <- usenet_words %>%
  inner_join(get_sentiments("afinn"), by = "word") %>%
  group_by(word) %>%
  summarize(occurences = n(),
            contribution = sum(value))

print(contributions)

# A tibble: 1,909 x 3
   word      occurences contribution
   <chr>          <int>        <dbl>
 1 abandon           13          -26
 2 abandoned         19          -38
 3 abandons           3           -6
 4 abduction          2           -4
 5 abhor              4          -12
 6 abhorred           1           -3
 7 abhorrent          2           -6
 8 abilities         16           32
 9 ability          177          354
10 aboard             8            8
# i 1,899 more rows
…
These words generally seem like reasonable indicators of sentiment, but some issues are apparent. For example, “true” might appear in negative phrases like “not true,” and words like “God” and “Jesus” are frequent on Usenet but could be used in both positive and negative contexts.

We may also want to examine which words contribute most to sentiment within each newsgroup, helping identify any newsgroups where the sentiment estimates might be misleading.

top_sentiment_words <- words_by_newsgroup %>%
  inner_join(get_sentiments("afinn"), by = "word") %>%
  mutate(contribution = value * n / sum(n))

We can compute how much each word contributes to the sentiment score of each newsgroup and then visualize the most influential words from a selection of groups.

print(top_sentiment_words)

# A tibble: 13,078 x 5
   newsgroup              word       n value contribution
   <chr>                  <chr>  <int> <dbl>        <dbl>
 1 soc.religion.christian god      917     1      0.0144 
 2 soc.religion.christian jesus    440     1      0.00690
 3 talk.politics.guns     gun      425    -1     -0.00667
 4 talk.religion.misc     god      296     1      0.00464
 5 alt.atheism            god      268     1      0.00421
 6 soc.religion.christian faith    257     1      0.00403
 7 talk.religion.misc     jesus    256     1      0.00402
 8 talk.politics.mideast  killed   202    -3     -0.00951
 9 talk.politics.mideast  war      187    -2     -0.00587
10 soc.religion.christian true     179     2      0.00562
# i 13,068 more rows
…
`summarise()` has grouped output by 'newsgroup'. You can override using the
`.groups` argument.

As a simple measure to reduce the role of randomness, we filtered out messages that had fewer than five words that contributed to sentiment.

What were the most positive messages?

sentiment_messages %>%
  arrange(desc(sentiment)) %>%
  print()

# A tibble: 3,565 x 4
   newsgroup               id     sentiment words
   <chr>                   <chr>      <dbl> <int>
 1 rec.sport.hockey        53560       3.89    18
 2 rec.sport.hockey        53602       3.83    30
 3 rec.sport.hockey        53822       3.83     6
 4 comp.windows.x          66905       3.32    19
 5 comp.windows.x          66906       3.32    19
 6 comp.os.ms-windows.misc 9904        3.29     7
 7 rec.sport.hockey        53645       3.23    13
 8 rec.autos               102768      3.2      5
 9 misc.forsale            75965       3        5
10 misc.forsale            76037       3        5
# i 3,555 more rows
…
It appears this message was flagged as most positive due to frequent use of the word “winner.” What about the most negative message? Interestingly, it’s also from the hockey site but expresses a very different sentiment.

sentiment_messages %>%
  arrange(sentiment) %>%
  print()

print_message("rec.sport.hockey", 53907)

# A tibble: 3,565 x 4
   newsgroup             id     sentiment words
   <chr>                 <chr>      <dbl> <int>
 1 rec.sport.hockey      53907      -3        6
 2 sci.electronics       53899      -3        5
 3 talk.politics.mideast 75918      -3        7
 4 rec.autos             101627     -2.83     6
 5 comp.graphics         37948      -2.8      5
 6 comp.windows.x        67204      -2.7     10
 7 talk.politics.guns    53362      -2.67     6
 8 alt.atheism           51309      -2.6      5
 9 comp.sys.mac.hardware 51513      -2.6      5
10 rec.autos             102883     -2.6      5
# i 3,555 more rows
…
