Getting Started with Data Wrangling — USC Libraries - DRS Resources for Data Literacy
…
71898
71907
71907
71907
71908
71908
71909
71909
71909
71910
71911
71915
71915

# A tibble: 10,000 x 1
      ID
   <dbl>
 1 51624
 2 51624
 3 51624
 4 51625
 5 51630
 6 51638
 7 51646
 8 51647
 9 51647
10 51647
# i 9,990 more rows
…
