Performing Analysis on Tidy Text — USC Libraries - DRS Resources for Data Literacy
…
Sentiment Analysis#

In the previous chapter, we explored the tidy text format and how it helps analyze word frequency and compare documents. Now, we shift focus to opinion mining or sentiment analysis, where we assess the emotional tone of a text. Just as human readers infer emotions like positivity, negativity, surprise, or disgust from words, we can use text mining tools to programmatically analyze a text’s emotional content. A common approach to sentiment analysis is to break the text into individual words, assign sentiment scores to those words, and sum them to understand the overall sentiment of the text. While this isn’t the only method for sentiment analysis, it is widely used and fits naturally within the tidy data framework and toolset.

The sentiments Dataset#

As discussed earlier, there are several methods and dictionaries available for evaluating opinion or emotion in text. The tidytext package provides access to three commonly used general-purpose sentiment lexicons: AFINN, developed by Finn Årup Nielsen; bing, from Bing Liu and collaborators; and nrc, created by Saif Mohammad and Peter Turney. All three lexicons are based on unigrams, meaning they assign sentiment scores to individual words. The nrc lexicon categorizes words as positive, negative, or into specific emotions like joy, anger, sadness, and trust, using a simple “yes”/”no” system. The bing lexicon also applies a binary positive or negative label to each word, while the AFINN lexicon assigns numerical sentiment scores ranging from -5 (most negative) to 5 (most positive). These lexicons are distributed under different licenses, so it’s important to review the terms and ensure they align with your project requirements before use.

The get_sentiments() function allows us to easily access specific sentiment lexicons along with their corresponding sentiment measures. By specifying the lexicon name (such as "afinn", "bing", or "nrc"), we can retrieve the appropriate set of words and their sentiment scores or categories, making it straightforward to incorporate sentiment analysis into a tidy text workflow.

library(tidytext)

print(get_sentiments("afinn"))

# A tibble: 2,477 x 2
   word       value
   <chr>      <dbl>
 1 abandon       -2
 2 abandoned     -2
 3 abandons      -2
 4 abducted      -2
 5 abduction     -2
 6 abductions    -2
 7 abhor         -3
 8 abhorred      -3
 9 abhorrent     -3
10 abhors        -3
# i 2,467 more rows

print(get_sentiments("bing"))

# A tibble: 6,786 x 2
   word        sentiment
   <chr>       <chr>    
 1 2-faces     negative 
 2 abnormal    negative 
 3 abolish     negative 
 4 abominable  negative 
 5 abominably  negative 
 6 abominate   negative 
 7 abomination negative 
 8 abort       negative 
 9 aborted     negative 
10 aborts      negative 
# i 6,776 more rows

print(get_sentiments("nrc"))

# A tibble: 13,872 x 2
   word        sentiment
   <chr>       <chr>    
 1 abacus      trust    
 2 abandon     fear     
 3 abandon     negative 
 4 abandon     sadness  
 5 abandoned   anger    
 6 abandoned   fear     
 7 abandoned   negative 
 8 abandoned   sadness  
 9 abandonment anger    
10 abandonment fear     
# i 13,862 more rows
…
Now that the text is in a tidy format with one word per row, we can easily perform sentiment analysis. First, we use the NRC lexicon and apply filter() to select only the words associated with the emotion joy. Next, we filter the text data to include only words from Emma and use inner_join() to connect the text with the joy words from the lexicon. Finally, we use count() from dplyr to find the most common joy-related words in the novel. The results show mostly positive, happy words like hope, friendship, and love, which align with the theme of joy. However, some words like found or present may not always carry joyful meaning in Austen’s writing, a nuance that will be explored further in Section 2.4.

nrc_joy <- get_sentiments("nrc") %>% 
  filter(sentiment == "joy")

tidy_books %>%
  filter(book == "Emma") %>%
  inner_join(nrc_joy) %>%
  count(word, sort = TRUE) %>%
  print()

Joining with `by = join_by(word)`

# A tibble: 301 x 2
   word          n
   <chr>     <int>
 1 good        359
 2 friend      166
 3 hope        143
 4 happy       125
 5 love        117
 6 deal         92
 7 found        92
 8 present      89
 9 kind         82
10 happiness    76
# i 291 more rows
…
